W1_Exercise Solutions
…
Now that youve installed the tidyverse, its time to load your package and data. Check out some of the observations.

In this code along session, youll be exploring the Titanic dataset, where each observation is a person and each variable is a feature such as Name, Age and Survived (or not). We will be exploring this data using tidyverse with a focus on dplyr for data wrangling and ggplot2 for data visualization

Load your data:

# Import the Tidyverse
library(tidyverse)
# Import data
passengers <- read_csv("data/train.csv") # how to name things readDOTcsv  vs read_csv
# Check out the first several observations of your dataframe
 #whats a dataframe
passengers #is data really binary? where did data come from?  How are missing values included?

## # A tibble: 891 x 12
##    PassengerId Survived Pclass Name  Sex     Age SibSp Parch Ticket  Fare
##          <dbl>    <dbl>  <dbl> <chr> <chr> <dbl> <dbl> <dbl> <chr>  <dbl>
##  1           1        0      3 Brau male     22     1     0 A/5 2  7.25
##  2           2        1      1 Cumi fema    38     1     0 PC 17 71.3 
##  3           3        1      3 Heik fema    26     0     0 STON/  7.92
##  4           4        1      1 Futr fema    35     1     0 113803 53.1 
##  5           5        0      3 Alle male     35     0     0 373450  8.05
##  6           6        0      3 Mora male     NA     0     0 330877  8.46
##  7           7        0      1 McCa male     54     0     0 17463  51.9 
##  8           8        0      3 Pals male      2     3     1 349909 21.1 
##  9           9        1      3 John fema    27     0     2 347742 11.1 
## 10          10        1      2 Nass fema    14     1     0 237736 30.1 
## #  with 881 more rows, and 2 more variables: Cabin <chr>, Embarked <chr>
…
Data wrangling with dplyr to filter your data, arrange it and create new features by mutating old ones.

Wrangle your data

Now its time to explore your data and get some initial insight into the dataset. Youll be using dplyr verbs such as filter, arrange and mutate, which do exactly what they say.

Lets sat that we wanted to choose a particular set of observations, say, those for which the Sex was female. dplyr allows us to do intuitively and in a language that mirrors how we think and talk about data.

The filter verb chooses only the observations that match the condition. See it in action:

# Filter to get all "male" rows
passengers %>% 
  filter(Sex == "male") 

## # A tibble: 577 x 12
##    PassengerId Survived Pclass Name  Sex     Age SibSp Parch Ticket  Fare
##          <dbl>    <dbl>  <dbl> <chr> <chr> <dbl> <dbl> <dbl> <chr>  <dbl>
##  1           1        0      3 Brau male     22     1     0 A/5 2  7.25
##  2           5        0      3 Alle male     35     0     0 373450  8.05
##  3           6        0      3 Mora male     NA     0     0 330877  8.46
##  4           7        0      1 McCa male     54     0     0 17463  51.9 
##  5           8        0      3 Pals male      2     3     1 349909 21.1 
##  6          13        0      3 Saun male     20     0     0 A/5.   8.05
##  7          14        0      3 Ande male     39     1     5 347082 31.3 
##  8          17        0      3 Rice male      2     4     1 382652 29.1 
##  9          18        1      2 Will male     NA     0     0 244373 13   
## 10          21        0      2 Fynn male     35     0     0 239865 26   
## #  with 567 more rows, and 2 more variables: Cabin <chr>, Embarked <chr>
What can you see here? Any ideas about whether men are likely to have survived or not?

Note:

you can read dplyr code like a sentence: take your data and then (%>%) filter it according the condition that the sex is male.

the above does not alter the original dataframe.

filter(Sex = "male") is a common error (Ive made it); theres a cool tidyverse error guide. We will go into errors in more detail in a bit.

# Filter to get all "female" rows
passengers %>% 
  filter(Sex == "female")

## # A tibble: 314 x 12
##    PassengerId Survived Pclass Name  Sex     Age SibSp Parch Ticket  Fare
##          <dbl>    <dbl>  <dbl> <chr> <chr> <dbl> <dbl> <dbl> <chr>  <dbl>
##  1           2        1      1 Cumi fema    38     1     0 PC 17 71.3 
##  2           3        1      3 Heik fema    26     0     0 STON/  7.92
##  3           4        1      1 Futr fema    35     1     0 113803 53.1 
##  4           9        1      3 John fema    27     0     2 347742 11.1 
##  5          10        1      2 Nass fema    14     1     0 237736 30.1 
##  6          11        1      3 Sand fema     4     1     1 PP 95 16.7 
##  7          12        1      1 Bonn fema    58     0     0 113783 26.6 
##  8          15        0      3 Vest fema    14     0     0 350406  7.85
##  9          16        1      2 Hewl fema    55     0     0 248706 16   
## 10          19        0      3 Vand fema    31     1     0 345763 18   
## #  with 304 more rows, and 2 more variables: Cabin <chr>, Embarked <chr>

What can you see here? Any ideas about whether women are likely to have survived or not?

Lets say you wanted to arrange your observations by increaing Fare to see if you can notice any trends. How can we use the verb arrange to achieve this?

# Arrange by increasing Fare
passengers %>% 
  arrange(Fare)

## # A tibble: 891 x 12
##    PassengerId Survived Pclass Name  Sex     Age SibSp Parch Ticket  Fare
##          <dbl>    <dbl>  <dbl> <chr> <chr> <dbl> <dbl> <dbl> <chr>  <dbl>
##  1         180        0      3 Leon male     36     0     0 LINE       0
##  2         264        0      1 Harr male     40     0     0 112059     0
##  3         272        1      3 Torn male     25     0     0 LINE       0
##  4         278        0      2 "Par male     NA     0     0 239853     0
##  5         303        0      3 John male     19     0     0 LINE       0
##  6         414        0      2 Cunn male     NA     0     0 239853     0
##  7         467        0      2 Camp male     NA     0     0 239853     0
##  8         482        0      2 "Fro male     NA     0     0 239854     0
##  9         598        0      3 John male     49     0     0 LINE       0
## 10         634        0      1 Parr male     NA     0     0 112052     0
## #  with 881 more rows, and 2 more variables: Cabin <chr>, Embarked <chr>

What can you see here?

You can also arrange by decreasing Fare:

# Arrange by decreasing Fare
passengers %>% 
  arrange(desc(Fare))

## # A tibble: 891 x 12
##    PassengerId Survived Pclass Name  Sex     Age SibSp Parch Ticket  Fare
##          <dbl>    <dbl>  <dbl> <chr> <chr> <dbl> <dbl> <dbl> <chr>  <dbl>
##  1         259        1      1 Ward fema    35     0     0 PC 17  512.
##  2         680        1      1 Card male     36     0     1 PC 17  512.
##  3         738        1      1 Lesu male     35     0     0 PC 17  512.
##  4          28        0      1 Fort male     19     3     2 19950   263 
##  5          89        1      1 Fort fema    23     3     2 19950   263 
##  6         342        1      1 Fort fema    24     3     2 19950   263 
##  7         439        0      1 Fort male     64     1     4 19950   263 
##  8         312        1      1 Ryer fema    18     2     2 PC 17  262.
##  9         743        1      1 "Rye fema    21     2     2 PC 17  262.
## 10         119        0      1 Baxt male     24     0     1 PC 17  248.
## #  with 881 more rows, and 2 more variables: Cabin <chr>, Embarked <chr>

What can you see here?

Sometimes you may wish to create new variables. We know that the variable Parch is the number of parents and children while SibSp is the number of siblings and spouses. We can add these together to get a new variable FamSize. To do so, you mutate the original variables into the new one.

# Create new column FamSize (size of family)
passengers %>% 
  mutate(FamSize = Parch + SibSp)

## # A tibble: 891 x 13
##    PassengerId Survived Pclass Name  Sex     Age SibSp Parch Ticket  Fare
##          <dbl>    <dbl>  <dbl> <chr> <chr> <dbl> <dbl> <dbl> <chr>  <dbl>
##  1           1        0      3 Brau male     22     1     0 A/5 2  7.25
##  2           2        1      1 Cumi fema    38     1     0 PC 17 71.3 
##  3           3        1      3 Heik fema    26     0     0 STON/  7.92
##  4           4        1      1 Futr fema    35     1     0 113803 53.1 
##  5           5        0      3 Alle male     35     0     0 373450  8.05
##  6           6        0      3 Mora male     NA     0     0 330877  8.46
##  7           7        0      1 McCa male     54     0     0 17463  51.9 
##  8           8        0      3 Pals male      2     3     1 349909 21.1 
##  9           9        1      3 John fema    27     0     2 347742 11.1 
## 10          10        1      2 Nass fema    14     1     0 237736 30.1 
## #  with 881 more rows, and 3 more variables: Cabin <chr>, Embarked <chr>,
## #   FamSize <dbl>
…
Is it possible that larger families have a lower rate of survival?

To test this hypothesis, create a new variable FamSize as the sum of Parch and SibSp as above, then arrange by decreasing FamSize:

# Create new column FamSize (size of family)
# Arrange by decreasing FamSize
passengers %>% 
  mutate(FamSize = Parch + SibSp) %>% 
  arrange(desc(FamSize))

## # A tibble: 891 x 13
##    PassengerId Survived Pclass Name  Sex     Age SibSp Parch Ticket  Fare
##          <dbl>    <dbl>  <dbl> <chr> <chr> <dbl> <dbl> <dbl> <chr>  <dbl>
##  1         160        0      3 Sage male     NA     8     2 CA. 2  69.6
##  2         181        0      3 Sage fema    NA     8     2 CA. 2  69.6
##  3         202        0      3 Sage male     NA     8     2 CA. 2  69.6
##  4         325        0      3 Sage male     NA     8     2 CA. 2  69.6
##  5         793        0      3 Sage fema    NA     8     2 CA. 2  69.6
##  6         847        0      3 Sage male     NA     8     2 CA. 2  69.6
##  7         864        0      3 "Sag fema    NA     8     2 CA. 2  69.6
##  8          60        0      3 Good male     11     5     2 CA 21  46.9
##  9          72        0      3 Good fema    16     5     2 CA 21  46.9
## 10         387        0      3 Good male      1     5     2 CA 21  46.9
## #  with 881 more rows, and 3 more variables: Cabin <chr>, Embarked <chr>,
## #   FamSize <dbl>
…
# Turn numerical values of Survived column to "No" & "Yes" 
passengers %>% 
  mutate(Survived = ifelse(Survived == 0, "No", "Yes"))

## # A tibble: 891 x 12
##    PassengerId Survived Pclass Name  Sex     Age SibSp Parch Ticket  Fare
##          <dbl> <chr>     <dbl> <chr> <chr> <dbl> <dbl> <dbl> <chr>  <dbl>
##  1           1 No            3 Brau male     22     1     0 A/5 2  7.25
##  2           2 Yes           1 Cumi fema    38     1     0 PC 17 71.3 
##  3           3 Yes           3 Heik fema    26     0     0 STON/  7.92
##  4           4 Yes           1 Futr fema    35     1     0 113803 53.1 
##  5           5 No            3 Alle male     35     0     0 373450  8.05
##  6           6 No            3 Mora male     NA     0     0 330877  8.46
##  7           7 No            1 McCa male     54     0     0 17463  51.9 
##  8           8 No            3 Pals male      2     3     1 349909 21.1 
##  9           9 Yes           3 John fema    27     0     2 347742 11.1 
## 10          10 Yes           2 Nass fema    14     1     0 237736 30.1 
## #  with 881 more rows, and 2 more variables: Cabin <chr>, Embarked <chr>

So far, our new variables have just been printed to the console, but not saved. If we want to explore our new variable further we will save it as a new dataframe called passengers1. The way we create and save this new object is similar to how the data was loaded using assingment arrow <-. The shortcut for the assignment arrow is option+dash.

# Turn numerical values of Survived column to "No" & "Yes" (new dataframe)
passengers1 <- passengers %>% 
  mutate(Survived = ifelse(Survived == 0, "No", "Yes"))
passengers1

## # A tibble: 891 x 12
##    PassengerId Survived Pclass Name  Sex     Age SibSp Parch Ticket  Fare
##          <dbl> <chr>     <dbl> <chr> <chr> <dbl> <dbl> <dbl> <chr>  <dbl>
##  1           1 No            3 Brau male     22     1     0 A/5 2  7.25
##  2           2 Yes           1 Cumi fema    38     1     0 PC 17 71.3 
##  3           3 Yes           3 Heik fema    26     0     0 STON/  7.92
##  4           4 Yes           1 Futr fema    35     1     0 113803 53.1 
##  5           5 No            3 Alle male     35     0     0 373450  8.05
##  6           6 No            3 Mora male     NA     0     0 330877  8.46
##  7           7 No            1 McCa male     54     0     0 17463  51.9 
##  8           8 No            3 Pals male      2     3     1 349909 21.1 
##  9           9 Yes           3 John fema    27     0     2 347742 11.1 
## 10          10 Yes           2 Nass fema    14     1     0 237736 30.1 
## #  with 881 more rows, and 2 more variables: Cabin <chr>, Embarked <chr>
…
